Biostat 203B Homework 3
…
Lets import the time series data directly from the csv file on GitHub:

(confirmed <- read_csv("https://raw.githubusercontent.com/CSSEGISandData/COVID-19/master/csse_covid_19_data/csse_covid_19_time_series/time_series_19-covid-Confirmed.csv"))

## Parsed with column specification:
## cols(
##   .default = col_double(),
##   `Province/State` = col_character(),
##   `Country/Region` = col_character()
## )

## See spec(...) for full column specifications.

## # A tibble: 84 x 36
##    `Province/State` `Country/Region`   Lat  Long `1/22/20` `1/23/20` `1/24/20`
##    <chr>            <chr>            <dbl> <dbl>     <dbl>     <dbl>     <dbl>
##  1 Anhui            Mainland China    31.8  117.         1         9        15
##  2 Beijing          Mainland China    40.2  116.        14        22        36
##  3 Chongqing        Mainland China    30.1  108.         6         9        27
##  4 Fujian           Mainland China    26.1  118.         1         5        10
##  5 Gansu            Mainland China    36.1  104.         0         2         2
##  6 Guangdong        Mainland China    23.3  113.        26        32        53
##  7 Guangxi          Mainland China    23.8  109.         2         5        23
##  8 Guizhou          Mainland China    26.8  107.         1         3         3
##  9 Hainan           Mainland China    19.2  110.         4         5         8
## 10 Hebei            Mainland China    38.0  115.         1         1         2
## #  with 74 more rows, and 29 more variables: `1/25/20` <dbl>, `1/26/20` <dbl>,
## #   `1/27/20` <dbl>, `1/28/20` <dbl>, `1/29/20` <dbl>, `1/30/20` <dbl>,
## #   `1/31/20` <dbl>, `2/1/20` <dbl>, `2/2/20` <dbl>, `2/3/20` <dbl>,
## #   `2/4/20` <dbl>, `2/5/20` <dbl>, `2/6/20` <dbl>, `2/7/20` <dbl>,
## #   `2/8/20` <dbl>, `2/9/20` <dbl>, `2/10/20` <dbl>, `2/11/20` <dbl>,
## #   `2/12/20` <dbl>, `2/13/20` <dbl>, `2/14/20` <dbl>, `2/15/20` <dbl>,
## #   `2/16/20` <dbl>, `2/17/20` <dbl>, `2/18/20` <dbl>, `2/19/20` <dbl>,
## #   `2/20/20` <dbl>, `2/21/20` <dbl>, `2/22/20` <dbl>

(recovered <- read_csv("https://raw.githubusercontent.com/CSSEGISandData/COVID-19/master/csse_covid_19_data/csse_covid_19_time_series/time_series_19-covid-Recovered.csv"))

## Parsed with column specification:
## cols(
##   .default = col_double(),
##   `Province/State` = col_character(),
##   `Country/Region` = col_character()
## )
## See spec(...) for full column specifications.

## # A tibble: 84 x 36
##    `Province/State` `Country/Region`   Lat  Long `1/22/20` `1/23/20` `1/24/20`
##    <chr>            <chr>            <dbl> <dbl>     <dbl>     <dbl>     <dbl>
##  1 Anhui            Mainland China    31.8  117.         0         0         0
##  2 Beijing          Mainland China    40.2  116.         0         0         1
##  3 Chongqing        Mainland China    30.1  108.         0         0         0
##  4 Fujian           Mainland China    26.1  118.         0         0         0
##  5 Gansu            Mainland China    36.1  104.         0         0         0
##  6 Guangdong        Mainland China    23.3  113.         0         2         2
##  7 Guangxi          Mainland China    23.8  109.         0         0         0
##  8 Guizhou          Mainland China    26.8  107.         0         0         0
##  9 Hainan           Mainland China    19.2  110.         0         0         0
## 10 Hebei            Mainland China    38.0  115.         0         0         0
## #  with 74 more rows, and 29 more variables: `1/25/20` <dbl>, `1/26/20` <dbl>,
## #   `1/27/20` <dbl>, `1/28/20` <dbl>, `1/29/20` <dbl>, `1/30/20` <dbl>,
## #   `1/31/20` <dbl>, `2/1/20` <dbl>, `2/2/20` <dbl>, `2/3/20` <dbl>,
## #   `2/4/20` <dbl>, `2/5/20` <dbl>, `2/6/20` <dbl>, `2/7/20` <dbl>,
## #   `2/8/20` <dbl>, `2/9/20` <dbl>, `2/10/20` <dbl>, `2/11/20` <dbl>,
## #   `2/12/20` <dbl>, `2/13/20` <dbl>, `2/14/20` <dbl>, `2/15/20` <dbl>,
## #   `2/16/20` <dbl>, `2/17/20` <dbl>, `2/18/20` <dbl>, `2/19/20` <dbl>,
## #   `2/20/20` <dbl>, `2/21/20` <dbl>, `2/22/20` <dbl>

(death <- read_csv("https://raw.githubusercontent.com/CSSEGISandData/COVID-19/master/csse_covid_19_data/csse_covid_19_time_series/time_series_19-covid-Deaths.csv"))

## Parsed with column specification:
## cols(
##   .default = col_double(),
##   `Province/State` = col_character(),
##   `Country/Region` = col_character()
## )
## See spec(...) for full column specifications.

## # A tibble: 84 x 36
##    `Province/State` `Country/Region`   Lat  Long `1/22/20` `1/23/20` `1/24/20`
##    <chr>            <chr>            <dbl> <dbl>     <dbl>     <dbl>     <dbl>
##  1 Anhui            Mainland China    31.8  117.         0         0         0
##  2 Beijing          Mainland China    40.2  116.         0         0         0
##  3 Chongqing        Mainland China    30.1  108.         0         0         0
##  4 Fujian           Mainland China    26.1  118.         0         0         0
##  5 Gansu            Mainland China    36.1  104.         0         0         0
##  6 Guangdong        Mainland China    23.3  113.         0         0         0
##  7 Guangxi          Mainland China    23.8  109.         0         0         0
##  8 Guizhou          Mainland China    26.8  107.         0         0         0
##  9 Hainan           Mainland China    19.2  110.         0         0         0
## 10 Hebei            Mainland China    38.0  115.         0         1         1
## #  with 74 more rows, and 29 more variables: `1/25/20` <dbl>, `1/26/20` <dbl>,
## #   `1/27/20` <dbl>, `1/28/20` <dbl>, `1/29/20` <dbl>, `1/30/20` <dbl>,
## #   `1/31/20` <dbl>, `2/1/20` <dbl>, `2/2/20` <dbl>, `2/3/20` <dbl>,
## #   `2/4/20` <dbl>, `2/5/20` <dbl>, `2/6/20` <dbl>, `2/7/20` <dbl>,
## #   `2/8/20` <dbl>, `2/9/20` <dbl>, `2/10/20` <dbl>, `2/11/20` <dbl>,
## #   `2/12/20` <dbl>, `2/13/20` <dbl>, `2/14/20` <dbl>, `2/15/20` <dbl>,
## #   `2/16/20` <dbl>, `2/17/20` <dbl>, `2/18/20` <dbl>, `2/19/20` <dbl>,
## #   `2/20/20` <dbl>, `2/21/20` <dbl>, `2/22/20` <dbl>
Tidy data

I want to tidy data into the long format. pivot_longer is the modern version of gather function in dplyr.

confirmed_long <- confirmed %>%
  pivot_longer(-(`Province/State`:Long), 
               names_to = "Date", 
               values_to = "confirmed") %>%
  mutate(Date = (ymd(Date))) 

## Warning: All formats failed to parse. No formats found.

confirmed_long

## # A tibble: 2,688 x 6
##    `Province/State` `Country/Region`   Lat  Long Date       confirmed
##    <chr>            <chr>            <dbl> <dbl> <date>         <dbl>
##  1 Anhui            Mainland China    31.8  117. NA                 1
##  2 Anhui            Mainland China    31.8  117. NA                 9
##  3 Anhui            Mainland China    31.8  117. NA                15
##  4 Anhui            Mainland China    31.8  117. NA                39
##  5 Anhui            Mainland China    31.8  117. NA                60
##  6 Anhui            Mainland China    31.8  117. NA                70
##  7 Anhui            Mainland China    31.8  117. NA               106
##  8 Anhui            Mainland China    31.8  117. NA               152
##  9 Anhui            Mainland China    31.8  117. NA               200
## 10 Anhui            Mainland China    31.8  117. NA               237
## #  with 2,678 more rows

recovered_long <- recovered %>%
  pivot_longer(-(`Province/State`:Long), 
               names_to = "Date", 
               values_to = "recovered") %>%
  mutate(Date = mdy(Date))
recovered_long

## # A tibble: 2,688 x 6
##    `Province/State` `Country/Region`   Lat  Long Date       recovered
##    <chr>            <chr>            <dbl> <dbl> <date>         <dbl>
##  1 Anhui            Mainland China    31.8  117. 2020-01-22         0
##  2 Anhui            Mainland China    31.8  117. 2020-01-23         0
##  3 Anhui            Mainland China    31.8  117. 2020-01-24         0
##  4 Anhui            Mainland China    31.8  117. 2020-01-25         0
##  5 Anhui            Mainland China    31.8  117. 2020-01-26         0
##  6 Anhui            Mainland China    31.8  117. 2020-01-27         0
##  7 Anhui            Mainland China    31.8  117. 2020-01-28         0
##  8 Anhui            Mainland China    31.8  117. 2020-01-29         2
##  9 Anhui            Mainland China    31.8  117. 2020-01-30         2
## 10 Anhui            Mainland China    31.8  117. 2020-01-31         3
## #  with 2,678 more rows

death_long <- death %>%
  pivot_longer(-(`Province/State`:Long), 
               names_to = "Date", 
               values_to = "death") %>%
  mutate(Date = mdy(Date))
death_long

## # A tibble: 2,688 x 6
##    `Province/State` `Country/Region`   Lat  Long Date       death
##    <chr>            <chr>            <dbl> <dbl> <date>     <dbl>
##  1 Anhui            Mainland China    31.8  117. 2020-01-22     0
##  2 Anhui            Mainland China    31.8  117. 2020-01-23     0
##  3 Anhui            Mainland China    31.8  117. 2020-01-24     0
##  4 Anhui            Mainland China    31.8  117. 2020-01-25     0
##  5 Anhui            Mainland China    31.8  117. 2020-01-26     0
##  6 Anhui            Mainland China    31.8  117. 2020-01-27     0
##  7 Anhui            Mainland China    31.8  117. 2020-01-28     0
##  8 Anhui            Mainland China    31.8  117. 2020-01-29     0
##  9 Anhui            Mainland China    31.8  117. 2020-01-30     0
## 10 Anhui            Mainland China    31.8  117. 2020-01-31     0
## #  with 2,678 more rows

ncov_tbl <- confirmed_long %>%
  left_join(recovered_long) %>%
  left_join(death_long) %>%
  pivot_longer(confirmed:death, 
               names_to = "Case", 
               values_to = "Count")

## Joining, by = c("Province/State", "Country/Region", "Lat", "Long", "Date")
## Joining, by = c("Province/State", "Country/Region", "Lat", "Long", "Date")

ncov_tbl %>% print(width = Inf)

## # A tibble: 8,064 x 7
##    `Province/State` `Country/Region`   Lat  Long Date       Case      Count
##    <chr>            <chr>            <dbl> <dbl> <date>     <chr>     <dbl>
##  1 Anhui            Mainland China    31.8  117. NA         confirmed     1
##  2 Anhui            Mainland China    31.8  117. NA         recovered    NA
##  3 Anhui            Mainland China    31.8  117. NA         death        NA
##  4 Anhui            Mainland China    31.8  117. NA         confirmed     9
##  5 Anhui            Mainland China    31.8  117. NA         recovered    NA
##  6 Anhui            Mainland China    31.8  117. NA         death        NA
##  7 Anhui            Mainland China    31.8  117. NA         confirmed    15
##  8 Anhui            Mainland China    31.8  117. NA         recovered    NA
##  9 Anhui            Mainland China    31.8  117. NA         death        NA
## 10 Anhui            Mainland China    31.8  117. NA         confirmed    39
## #  with 8,054 more rows
…
## Reading layer `bou2_4p' from data source `/home/stpraser18/biostat-203b-2020-winter/hw3/bou2_4p.shp' using driver `ESRI Shapefile'
## Simple feature collection with 925 features and 7 fields
## geometry type:  POLYGON
## dimension:      XY
## bbox:           xmin: 73.44696 ymin: 6.318641 xmax: 135.0858 ymax: 53.55793
## epsg (SRID):    NA
## proj4string:    NA
## Simple feature collection with 925 features and 7 fields
## geometry type:  POLYGON
## dimension:      XY
## bbox:           xmin: 73.44696 ymin: 6.318641 xmax: 135.0858 ymax: 53.55793
## epsg (SRID):    NA
## proj4string:    NA
## # A tibble: 925 x 8
##      AREA PERIMETER BOU2_4M_ BOU2_4M_ID ADCODE93 ADCODE99 NAME 
##  *  <dbl>     <dbl>    <int>      <int>    <int>    <int> <chr>
##  1  54.4     68.5          2         23   230000   230000 
##  2 129.     130.           3         15   150000   150000 
##  3 176.      84.9          4         65   650000   650000 
##  4  21.3     41.2          5         22   220000   220000 
##  5  15.6     38.4          6         21   210000   210000 
##  6  41.5     76.8          7         62   620000   620000 
##  7  19.5     44.9          8         13   130000   130000 
##  8   1.73     8.50         9         11   110000   110000 
##  9   0        0.088       10        292   210000   210000 
## 10   0        0.047       11        292   210000   210000 
## #  with 915 more rows, and 1 more variable: geometry <POLYGON>
…
# for exploration
plotdate <- "2020-02-14"
case <- "confirmed"
ncov_tbl %>%
  filter(`Country/Region` %in% c("Mainland China", "Macau", "Hong Kong", "Taiwan")) %>%
  filter(Date == plotdate, Case == case) %>%
  group_by(`Province/State`) %>%  
  top_n(1, Date) %>%
  right_join(chn_prov, by = c("Province/State" = "NAME_ENG"))

## Warning: Column `Province/State`/`NAME_ENG` has different attributes on LHS and
## RHS of join

## # A tibble: 34 x 10
## # Groups:   Province/State [33]
##    `Province/State` `Country/Region`   Lat  Long Date       Case  Count NAME 
##    <chr>            <chr>            <dbl> <dbl> <date>     <chr> <dbl> <chr>
##  1 Shanghai         <NA>                NA    NA NA         <NA>     NA 
##  2 Yunnan           <NA>                NA    NA NA         <NA>     NA 
##  3 Inner Mongolia   <NA>                NA    NA NA         <NA>     NA 
##  4 Beijing          <NA>                NA    NA NA         <NA>     NA 
##  5 Taiwan           <NA>                NA    NA NA         <NA>     NA 
##  6 Jilin            <NA>                NA    NA NA         <NA>     NA 
##  7 Sichuan          <NA>                NA    NA NA         <NA>     NA 
##  8 Tianjin          <NA>                NA    NA NA         <NA>     NA 
##  9 Ningxia          <NA>                NA    NA NA         <NA>     NA 
## 10 Anhui            <NA>                NA    NA NA         <NA>     NA 
## #  with 24 more rows, and 2 more variables: n <int>, geometry <GEOMETRY>
…
